\relax 
\providecommand\hyper@newdestlabel[2]{}
\providecommand\HyperFirstAtBeginDocument{\AtBeginDocument}
\HyperFirstAtBeginDocument{\ifx\hyper@anchor\@undefined
\global\let\oldcontentsline\contentsline
\gdef\contentsline#1#2#3#4{\oldcontentsline{#1}{#2}{#3}}
\global\let\oldnewlabel\newlabel
\gdef\newlabel#1#2{\newlabelxx{#1}#2}
\gdef\newlabelxx#1#2#3#4#5#6{\oldnewlabel{#1}{{#2}{#3}}}
\AtEndDocument{\ifx\hyper@anchor\@undefined
\let\contentsline\oldcontentsline
\let\newlabel\oldnewlabel
\fi}
\fi}
\global\let\hyper@last\relax 
\gdef\HyperFirstAtBeginDocument#1{#1}
\providecommand*\HyPL@Entry[1]{}
\HyPL@Entry{0<</P(0)>>}
\@writefile{toc}{\beamer@endinputifotherversion {3.36pt}}
\@writefile{nav}{\beamer@endinputifotherversion {3.36pt}}
\@writefile{nav}{\headcommand {\slideentry {0}{0}{1}{1/1}{}{0}}}
\@writefile{nav}{\headcommand {\beamer@framepages {1}{1}}}
\HyPL@Entry{1<</P(1)>>}
\@writefile{nav}{\headcommand {\slideentry {0}{0}{2}{2/2}{}{0}}}
\@writefile{nav}{\headcommand {\beamer@framepages {2}{2}}}
\@writefile{toc}{\beamer@sectionintoc {1}{Case Study}{3}{0}{1}}
\@writefile{nav}{\headcommand {\sectionentry {1}{Case Study}{3}{Case Study}{0}}}
\@writefile{nav}{\headcommand {\beamer@sectionpages {1}{2}}}
\@writefile{nav}{\headcommand {\beamer@subsectionpages {1}{2}}}
\@writefile{nav}{\headcommand {\slideentry {1}{0}{1}{3/3}{}{0}}}
\@writefile{nav}{\headcommand {\beamer@framepages {3}{3}}}
\HyPL@Entry{3<</P(2)>>}
\@writefile{nav}{\headcommand {\slideentry {1}{0}{2}{4/4}{}{0}}}
\@writefile{nav}{\headcommand {\beamer@framepages {4}{4}}}
\HyPL@Entry{4<</P(3)>>}
\@writefile{nav}{\headcommand {\slideentry {1}{0}{3}{5/5}{}{0}}}
\@writefile{nav}{\headcommand {\beamer@framepages {5}{5}}}
\HyPL@Entry{5<</P(4)>>}
\@writefile{nav}{\headcommand {\slideentry {1}{0}{4}{6/6}{}{0}}}
\@writefile{nav}{\headcommand {\beamer@framepages {6}{6}}}
\HyPL@Entry{6<</P(5)>>}
\@writefile{nav}{\headcommand {\slideentry {1}{0}{5}{7/7}{}{0}}}
\@writefile{nav}{\headcommand {\beamer@framepages {7}{7}}}
\HyPL@Entry{7<</P(6)>>}
\@writefile{nav}{\headcommand {\slideentry {1}{0}{6}{8/8}{}{0}}}
\@writefile{nav}{\headcommand {\beamer@framepages {8}{8}}}
\HyPL@Entry{8<</P(7)>>}
\@writefile{nav}{\headcommand {\slideentry {1}{0}{7}{9/9}{}{0}}}
\@writefile{nav}{\headcommand {\beamer@framepages {9}{9}}}
\HyPL@Entry{9<</P(8)>>}
\@writefile{nav}{\headcommand {\slideentry {1}{0}{8}{10/10}{}{0}}}
\@writefile{nav}{\headcommand {\beamer@framepages {10}{10}}}
\@writefile{toc}{\beamer@sectionintoc {2}{Shared Memory Architecture}{11}{0}{2}}
\@writefile{nav}{\headcommand {\sectionentry {2}{Shared Memory Architecture}{11}{Shared Memory Architecture}{0}}}
\@writefile{nav}{\headcommand {\beamer@sectionpages {3}{10}}}
\@writefile{nav}{\headcommand {\beamer@subsectionpages {3}{10}}}
\@writefile{nav}{\headcommand {\slideentry {2}{0}{1}{11/11}{}{0}}}
\@writefile{nav}{\headcommand {\beamer@framepages {11}{11}}}
\HyPL@Entry{11<</P(9)>>}
\@writefile{nav}{\headcommand {\slideentry {2}{0}{2}{12/12}{}{0}}}
\@writefile{nav}{\headcommand {\beamer@framepages {12}{12}}}
\HyPL@Entry{12<</P(10)>>}
\@writefile{nav}{\headcommand {\slideentry {2}{0}{3}{13/13}{}{0}}}
\@writefile{nav}{\headcommand {\beamer@framepages {13}{13}}}
\@writefile{toc}{\beamer@sectionintoc {3}{Programming Model}{14}{0}{3}}
\@writefile{nav}{\headcommand {\sectionentry {3}{Programming Model}{14}{Programming Model}{0}}}
\@writefile{nav}{\headcommand {\beamer@sectionpages {11}{13}}}
\@writefile{nav}{\headcommand {\beamer@subsectionpages {11}{13}}}
\@writefile{nav}{\headcommand {\slideentry {3}{0}{1}{14/14}{}{0}}}
\@writefile{nav}{\headcommand {\beamer@framepages {14}{14}}}
\HyPL@Entry{14<</P(11)>>}
\@writefile{nav}{\headcommand {\slideentry {3}{0}{2}{15/15}{}{0}}}
\@writefile{nav}{\headcommand {\beamer@framepages {15}{15}}}
\HyPL@Entry{15<</P(12)>>}
\@writefile{nav}{\headcommand {\slideentry {3}{0}{3}{16/16}{}{0}}}
\@writefile{nav}{\headcommand {\beamer@framepages {16}{16}}}
\HyPL@Entry{16<</P(13)>>}
\@writefile{nav}{\headcommand {\slideentry {3}{0}{4}{17/17}{}{0}}}
\@writefile{nav}{\headcommand {\beamer@framepages {17}{17}}}
\HyPL@Entry{17<</P(14)>>}
\@writefile{nav}{\headcommand {\slideentry {3}{0}{5}{18/18}{}{0}}}
\@writefile{nav}{\headcommand {\beamer@framepages {18}{18}}}
\HyPL@Entry{18<</P(15)>>}
\@writefile{nav}{\headcommand {\slideentry {3}{0}{6}{19/19}{}{0}}}
\@writefile{nav}{\headcommand {\beamer@framepages {19}{19}}}
\HyPL@Entry{19<</P(16)>>}
\@writefile{nav}{\headcommand {\slideentry {3}{0}{7}{20/20}{}{0}}}
\@writefile{nav}{\headcommand {\beamer@framepages {20}{20}}}
\HyPL@Entry{20<</P(17)>>}
\@writefile{nav}{\headcommand {\slideentry {3}{0}{8}{21/21}{}{0}}}
\@writefile{nav}{\headcommand {\beamer@framepages {21}{21}}}
\HyPL@Entry{21<</P(18)>>}
\@writefile{nav}{\headcommand {\slideentry {3}{0}{9}{22/22}{}{0}}}
\@writefile{nav}{\headcommand {\beamer@framepages {22}{22}}}
\@writefile{nav}{\headcommand {\slideentry {3}{0}{10}{23/23}{}{0}}}
\@writefile{nav}{\headcommand {\beamer@framepages {23}{23}}}
\HyPL@Entry{23<</P(19)>>}
\@writefile{loa}{\contentsline {algocf}{\numberline {1}{\ignorespaces Riemann Calculation}}}
\@writefile{nav}{\headcommand {\slideentry {3}{0}{11}{24/24}{}{0}}}
\@writefile{nav}{\headcommand {\beamer@framepages {24}{24}}}
\HyPL@Entry{24<</P(20)>>}
\@writefile{loa}{\contentsline {algocf}{\numberline {2}{\ignorespaces Riemann Calculation}}}
\@writefile{nav}{\headcommand {\slideentry {3}{0}{12}{25/25}{}{0}}}
\@writefile{nav}{\headcommand {\beamer@framepages {25}{25}}}
\@writefile{toc}{\beamer@sectionintoc {4}{Race Condition}{26}{0}{4}}
\@writefile{nav}{\headcommand {\sectionentry {4}{Race Condition}{26}{Race Condition}{0}}}
\@writefile{nav}{\headcommand {\beamer@sectionpages {14}{25}}}
\@writefile{nav}{\headcommand {\beamer@subsectionpages {14}{25}}}
\@writefile{nav}{\headcommand {\slideentry {4}{0}{1}{26/26}{}{0}}}
\@writefile{nav}{\headcommand {\beamer@framepages {26}{26}}}
\HyPL@Entry{26<</P(21)>>}
\@writefile{nav}{\headcommand {\slideentry {4}{0}{2}{27/27}{}{0}}}
\@writefile{nav}{\headcommand {\beamer@framepages {27}{27}}}
\HyPL@Entry{27<</P(22)>>}
\@writefile{nav}{\headcommand {\slideentry {4}{0}{3}{28/28}{}{0}}}
\@writefile{nav}{\headcommand {\beamer@framepages {28}{28}}}
\HyPL@Entry{28<</P(23)>>}
\@writefile{nav}{\headcommand {\slideentry {4}{0}{4}{29/29}{}{0}}}
\@writefile{nav}{\headcommand {\beamer@framepages {29}{29}}}
\HyPL@Entry{29<</P(24)>>}
\@writefile{nav}{\headcommand {\slideentry {4}{0}{5}{30/30}{}{0}}}
\@writefile{nav}{\headcommand {\beamer@framepages {30}{30}}}
\HyPL@Entry{30<</P(25)>>}
\@writefile{nav}{\headcommand {\slideentry {4}{0}{6}{31/31}{}{0}}}
\@writefile{nav}{\headcommand {\beamer@framepages {31}{31}}}
\@writefile{nav}{\headcommand {\beamer@partpages {1}{31}}}
\@writefile{nav}{\headcommand {\beamer@subsectionpages {26}{31}}}
\@writefile{nav}{\headcommand {\beamer@sectionpages {26}{31}}}
\@writefile{nav}{\headcommand {\beamer@documentpages {31}}}
\@writefile{nav}{\headcommand {\def \inserttotalframenumber {25}}}
